[
  {
    "title": "BEST SELLERS",
    "type": "automatic",
    "content_type": "recommendations"
  },
  {
    "title": "MANUAL SKUs EN CELULARES",
    "type": "product",
    "products": [
      {
        "title": "Apple iPad Air 2 16GB Wifi-Blanco",
        "brand": "Apple",
        "originalPrice": 680,
        "percentageOff": 0,
        "price": 680,
        "image": "//media.linio.com.ec/p/apple-9818-3922-1jpg",
        "color": null,
        "sku": "AP004EL06DKFLAEC",
        "type": "product",
        "href": "/p/apple-ipad-air-2-16gb-wifi-blanco-tmbavw",
        "slugs": {
          "product": "apple-ipad-air-2-16gb-wifi-blanco-tmbavw"
        },
        "ids": {
          "product": "AP004EL06DKFLAEC"
        }
      },
      {
        "title": "Samsung Galaxy J7 SM-J700M Duos 16GB 4G LTE",
        "brand": "Samsung",
        "originalPrice": 400,
        "percentageOff": 28.7525,
        "price": 284.99,
        "image": "//media.linio.com.ec/p/samsung-4247-04048-1jpg",
        "color": null,
        "sku": "SA007EL02ERGGLAEC",
        "type": "product",
        "href": "/p/samsung-galaxy-j7-sm-j700m-duos-16gb-4g-lte-ynur4w",
        "slugs": {
          "product": "samsung-galaxy-j7-sm-j700m-duos-16gb-4g-lte-ynur4w"
        },
        "ids": {
          "product": "SA007EL02ERGGLAEC"
        }
      }
    ],
    "content_type": "recommendations"
  },
  {
    "title": "BEST SELLERS EN CELULARES",
    "type": "category",
    "href": "/c/celulares-y-tablets",
    "slugs": {
      "category": "celulares-y-tablets"
    },
    "ids": {
      "category": 5022
    },
    "content_type": "recommendations"
  },
  {
    "title": "Marcas",
    "elements": [
      {
        "href": "https://www.invisionapp.com",
        "image": {
          "alt_attr": "invision",
          "src": "https://s3.amazonaws.com/fms-staging/b064d3e0-fb44-11e5-92f6-f23c9108191e.png",
          "title_attr": "invision"
        },
        "title": "Marcas",
        "type": "customized",
        "content_type": "banner"
      },
      {
        "href": "/c/celulares-y-tablets",
        "image": {
          "alt_attr": "brand",
          "src": "https://s3.amazonaws.com/fms-staging/d7921454-db24-11e5-9cfa-5e032e504744.jpeg",
          "title_attr": "brand"
        },
        "title": null,
        "type": "category",
        "slugs": {
          "category": "celulares-y-tablets"
        },
        "ids": {
          "category": 5022
        },
        "content_type": "banner"
      },
      {
        "href": "https://www.invisionapp.com",
        "image": {
          "alt_attr": "sadsa",
          "src": "https://s3.amazonaws.com/fms-staging/b064d3e0-fb44-11e5-92f6-f23c9108191e.png",
          "title_attr": "asda"
        },
        "title": "asdads",
        "type": "customized",
        "content_type": "banner"
      },
      {
        "href": "https://www.linio.com",
        "image": {
          "alt_attr": "asda",
          "src": "https://s3.amazonaws.com/fms-staging/b064d3e0-fb44-11e5-92f6-f23c9108191e.png",
          "title_attr": "asda"
        },
        "title": "daasd",
        "type": "customized",
        "slugs": null,
        "ids": null,
        "content_type": "banner"
      }
    ],
    "content_type": "carousel"
  },
  {
    "content_type": "markdown_text"
  },
  {
    "title": "Grid Prueba",
    "cells": [
      {
        "href": "/c/consolas-y-videojuegos",
        "image": {
          "alt_attr": "banner1",
          "src": "https://s3.amazonaws.com/fms-staging/e28dd7e4-fb45-11e5-a89f-f23c9108191e.png",
          "title_attr": "banner1"
        },
        "title": null,
        "type": "category",
        "slugs": {
          "category": "consolas-y-videojuegos"
        },
        "ids": {
          "category": 4776
        },
        "content_type": "banner",
        "cols": 23,
        "rows": 6
      }
    ],
    "content_type": "grid"
  },
  {
    "title": "PLAYSTATION",
    "cells": [
      {
        "href": "https://www.invisionapp.com",
        "image": {
          "alt_attr": "banner3",
          "src": "https://s3.amazonaws.com/fms-staging/40cd16d4-fb47-11e5-affa-f23c9108191e.png",
          "title_attr": "banner 3"
        },
        "title": "GAMES",
        "type": "customized",
        "content_type": "banner",
        "cols": 12,
        "rows": 3
      },
      {
        "href": "/c/celulares-y-tablets",
        "image": {
          "alt_attr": "banner3",
          "src": "https://s3.amazonaws.com/fms-staging/40cd16d4-fb47-11e5-affa-f23c9108191e.png",
          "title_attr": "banner3"
        },
        "title": "WAA",
        "type": "category",
        "slugs": {
          "category": "celulares-y-tablets"
        },
        "ids": {
          "category": 5022
        },
        "content_type": "banner",
        "cols": 12,
        "rows": 3
      },
      {
        "href": "https://www.linio.com",
        "image": {
          "alt_attr": "asda",
          "src": "https://s3.amazonaws.com/fms-staging/40cd16d4-fb47-11e5-affa-f23c9108191e.png",
          "title_attr": "asdd"
        },
        "title": "asdsa",
        "type": "customized",
        "slugs": null,
        "ids": null,
        "content_type": "banner",
        "cols": 12,
        "rows": 3
      }
    ],
    "content_type": "grid"
  },
  {
    "title": "EXPLORA NUESTRAS CATEGORIAS",
    "cells": [
      {
        "href": "/c/celulares-y-tablets/smartwatches",
        "image": {
          "alt_attr": "asdsa",
          "src": "https://s3.amazonaws.com/fms-staging/cae2ecae-fb47-11e5-8f43-f23c9108191e.png",
          "title_attr": "asdad"
        },
        "title": "SMARTWATCHES",
        "type": "category",
        "slugs": {
          "category": "celulares-y-tablets/smartwatches"
        },
        "ids": {
          "category": 5028
        },
        "content_type": "banner",
        "cols": 12,
        "rows": 11
      },
      {
        "href": "/c/celulares-y-tablets",
        "image": {
          "alt_attr": "asda",
          "src": "https://s3.amazonaws.com/fms-staging/cae2ecae-fb47-11e5-8f43-f23c9108191e.png",
          "title_attr": "asda"
        },
        "title": "CELULARES Y TABLETS",
        "type": "category",
        "slugs": {
          "category": "celulares-y-tablets"
        },
        "ids": {
          "category": 5022
        },
        "content_type": "banner",
        "cols": 12,
        "rows": 11
      }
    ],
    "content_type": "grid"
  },
  {
    "title": "",
    "cells": [
      {
        "href": "/c/celulares-y-tablets/tablets",
        "image": {
          "alt_attr": "asda",
          "src": "https://s3.amazonaws.com/fms-staging/cae2ecae-fb47-11e5-8f43-f23c9108191e.png",
          "title_attr": "asda"
        },
        "title": "TABLETS",
        "type": "category",
        "slugs": {
          "category": "celulares-y-tablets/tablets"
        },
        "ids": {
          "category": 5048
        },
        "content_type": "banner",
        "cols": 12,
        "rows": 11
      },
      {
        "href": "/c/celulares-y-tablets/telefonos-fijos",
        "image": {
          "alt_attr": "asda",
          "src": "https://s3.amazonaws.com/fms-staging/cae2ecae-fb47-11e5-8f43-f23c9108191e.png",
          "title_attr": "asda"
        },
        "title": "TELEFONOS",
        "type": "category",
        "slugs": {
          "category": "celulares-y-tablets/telefonos-fijos"
        },
        "ids": {
          "category": 5035
        },
        "content_type": "banner",
        "cols": 12,
        "rows": 11
      }
    ],
    "content_type": "grid"
  }
]
