{
  "paths": {
    "app": {
      "root": "app",
      "js": "app/Resources/assets/js",
      "scss": "app/Resources/assets/scss",
      "images": "app/Resources/assets/images",
      "fonts": "app/Resources/assets/fonts",
      "extra": {
        "foundation": "bower_components/foundation"
      },
      "config": "app/Resources/assets/js/config"
    },
    "jsDeps": {
      "distFiles": [
        "bower_components/sizzle/dist/sizzle.min.js",
        "bower_components/angular/angular.min.js",
        "bower_components/angular-touch/angular-touch.min.js",
        "bower_components/angular-ui-router/release/angular-ui-router.min.js",
        "bower_components/angular-animate/angular-animate.min.js",
        "bower_components/angular-mocks/angular-mocks.js",
        "bower_components/angular-local-storage/dist/angular-local-storage.min.js",
        "bower_components/echojs/dist/echo.js",
        "bower_components/aload/dist/aload.js",
        "bower_components/angular-carousel/dist/angular-carousel.min.js",
        "bower_components/angular-facebook/lib/angular-facebook.js",
        "bower_components/angular-google-plus/dist/angular-google-plus.min.js",
        "bower_components/angular-cookies/angular-cookies.min.js",
        "bower_components/angular-order-object-by/src/ng-order-object-by.js",
        "bower_components/ngDialog/js/ngDialog.js",
        "bower_components/ng-clip/dest/ng-clip.min.js",
        "bower_components/zeroclipboard/dist/ZeroClipboard.min.js",
        "bower_components/ngMask/dist/ngMask.min.js",
        "bower_components/angular-geohash/dist/angular-geohash.min.js",
        "bower_components/angular-credit-cards/release/angular-credit-cards.js",
        "bower_components/ouibounce/build/ouibounce.min.js"
      ],
      "maps": [
        "bower_components/sizzle/dist/sizzle.min.map",
        "bower_components/angular/angular.min.js.map",
        "bower_components/angular-animate/angular-animate.min.js.map",
        "bower_components/angular-touch/angular-touch.min.js.map",
        "bower_components/ngMask/dist/ngMask.min.map",
        "bower_components/angular-cookies/angular-cookies.min.js.map"
      ]
    },
    "dist": {
      "root": "web/assets",
      "js": "web/assets/js",
      "css": "web/assets/css",
      "images": "web/assets/images",
      "fonts": "web/assets/fonts",
      "extra": {}
    },
    "tmp": {
      "js": ".tmp/assets/js",
      "css": ".tmp/assets/css"
    },
    "gulp": {
      "tasks": "gulp"
    },
    "ant": {
      "buildLogs": "build/logs"
    }
  }
}
